<?xml version="1.0" encoding="UTF-8" standalone="no"?>
<!-- Created with Inkscape (http://www.inkscape.org/) -->

<svg
   xmlns:dc="http://purl.org/dc/elements/1.1/"
   xmlns:cc="http://creativecommons.org/ns#"
   xmlns:rdf="http://www.w3.org/1999/02/22-rdf-syntax-ns#"
   xmlns:svg="http://www.w3.org/2000/svg"
   xmlns="http://www.w3.org/2000/svg"
   xmlns:sodipodi="http://sodipodi.sourceforge.net/DTD/sodipodi-0.dtd"
   xmlns:inkscape="http://www.inkscape.org/namespaces/inkscape"
   id="svg4155"
   version="1.1"
   inkscape:version="0.91 r13725"
   xml:space="preserve"
   width="652.58124"
   height="239.55533"
   viewBox="0 0 652.58124 239.55533"
   sodipodi:docname="commit_detachedhead3.svg"><metadata
     id="metadata4161"><rdf:RDF><cc:Work
         rdf:about=""><dc:format>image/svg+xml</dc:format><dc:type
           rdf:resource="http://purl.org/dc/dcmitype/StillImage" /><dc:title></dc:title></cc:Work></rdf:RDF></metadata><defs
     id="defs4159"><marker
       inkscape:stockid="Arrow1Lend"
       orient="auto"
       refY="0"
       refX="0"
       id="Arrow1Lend"
       style="overflow:visible"
       inkscape:isstock="true"><path
         id="path4375"
         d="M 0,0 5,-5 -12.5,0 5,5 0,0 Z"
         style="fill:#000000;fill-opacity:1;fill-rule:evenodd;stroke:#000000;stroke-width:1pt;stroke-opacity:1"
         transform="matrix(-0.8,0,0,-0.8,-10,0)"
         inkscape:connector-curvature="0" /></marker><marker
       inkscape:stockid="Arrow1Lstart"
       orient="auto"
       refY="0"
       refX="0"
       id="Arrow1Lstart"
       style="overflow:visible"
       inkscape:isstock="true"><path
         id="path4372"
         d="M 0,0 5,-5 -12.5,0 5,5 0,0 Z"
         style="fill:#000000;fill-opacity:1;fill-rule:evenodd;stroke:#000000;stroke-width:1pt;stroke-opacity:1"
         transform="matrix(0.8,0,0,0.8,10,0)"
         inkscape:connector-curvature="0" /></marker></defs><sodipodi:namedview
     pagecolor="#ffffff"
     bordercolor="#666666"
     borderopacity="1"
     objecttolerance="10"
     gridtolerance="10"
     guidetolerance="10"
     inkscape:pageopacity="0"
     inkscape:pageshadow="2"
     inkscape:window-width="1920"
     inkscape:window-height="1021"
     id="namedview4157"
     showgrid="false"
     inkscape:zoom="1.108676"
     inkscape:cx="305.65288"
     inkscape:cy="79.778285"
     inkscape:window-x="-4"
     inkscape:window-y="30"
     inkscape:window-maximized="1"
     inkscape:current-layer="g4163"
     fit-margin-top="0"
     fit-margin-left="0"
     fit-margin-right="0"
     fit-margin-bottom="0" /><g
     id="g4163"
     inkscape:groupmode="layer"
     inkscape:label="commit_detachedhead"
     transform="matrix(1.25,0,0,-1.25,-0.00124999,239.55375)"><g
       transform="matrix(1,0,0,-1,0,127.64274)"
       id="g4167"><path
         inkscape:connector-curvature="0"
         id="path4169"
         style="fill:#00e7ff;fill-opacity:1;fill-rule:evenodd;stroke:#000000;stroke-width:1.60000002;stroke-linecap:butt;stroke-linejoin:miter;stroke-miterlimit:4;stroke-dasharray:none;stroke-opacity:1"
         d="m 12.148,72.875 47.047,0 c 6.289,0 11.352,5.063 11.352,11.348 l 0,31.269 c 0,6.289 -5.063,11.352 -11.352,11.352 l -47.047,0 c -6.285,0 -11.347,-5.063 -11.347,-11.352 l 0,-31.269 c 0,-6.285 5.062,-11.348 11.347,-11.348 z" /></g><g
       transform="matrix(1,0,0,-1,0,127.64274)"
       id="g4171"><path
         inkscape:connector-curvature="0"
         id="path4173"
         style="fill:#00e7ff;fill-opacity:1;fill-rule:evenodd;stroke:#000000;stroke-width:1.60000002;stroke-linecap:butt;stroke-linejoin:miter;stroke-miterlimit:4;stroke-dasharray:none;stroke-opacity:1"
         d="m 460.148,72.875 47.047,0 c 6.289,0 11.352,5.063 11.352,11.348 l 0,31.269 c 0,6.289 -5.063,11.352 -11.352,11.352 l -47.047,0 c -6.285,0 -11.347,-5.063 -11.347,-11.352 l 0,-31.269 c 0,-6.285 5.062,-11.348 11.347,-11.348 z" /></g><g
       transform="matrix(1,0,0,-1,0,127.64274)"
       id="g4175"><path
         inkscape:connector-curvature="0"
         id="path4177"
         style="fill:#00e7ff;fill-opacity:1;fill-rule:evenodd;stroke:#000000;stroke-width:1.60000002;stroke-linecap:butt;stroke-linejoin:miter;stroke-miterlimit:4;stroke-dasharray:none;stroke-opacity:1"
         d="m 348.148,72.875 47.047,0 c 6.289,0 11.352,5.063 11.352,11.348 l 0,31.269 c 0,6.289 -5.063,11.352 -11.352,11.352 l -47.047,0 c -6.285,0 -11.347,-5.063 -11.347,-11.352 l 0,-31.269 c 0,-6.285 5.062,-11.348 11.347,-11.348 z" /></g><g
       transform="matrix(1,0,0,-1,0,127.64274)"
       id="g4179"><path
         inkscape:connector-curvature="0"
         id="path4181"
         style="fill:#00e7ff;fill-opacity:1;fill-rule:evenodd;stroke:#000000;stroke-width:1.60000002;stroke-linecap:butt;stroke-linejoin:miter;stroke-miterlimit:4;stroke-dasharray:none;stroke-opacity:1"
         d="m 236.148,72.875 47.047,0 c 6.289,0 11.352,5.063 11.352,11.348 l 0,31.269 c 0,6.289 -5.063,11.352 -11.352,11.352 l -47.047,0 c -6.285,0 -11.347,-5.063 -11.347,-11.352 l 0,-31.269 c 0,-6.285 5.062,-11.348 11.347,-11.348 z" /></g><g
       transform="matrix(1,0,0,-1,0,127.64274)"
       id="g4183"><path
         inkscape:connector-curvature="0"
         id="path4185"
         style="fill:#00e7ff;fill-opacity:1;fill-rule:evenodd;stroke:#000000;stroke-width:1.60000002;stroke-linecap:butt;stroke-linejoin:miter;stroke-miterlimit:4;stroke-dasharray:none;stroke-opacity:1"
         d="m 124.148,72.875 47.047,0 c 6.289,0 11.352,5.063 11.352,11.348 l 0,31.269 c 0,6.289 -5.063,11.352 -11.352,11.352 l -47.047,0 c -6.285,0 -11.347,-5.063 -11.347,-11.352 l 0,-31.269 c 0,-6.285 5.062,-11.348 11.347,-11.348 z" /></g><text
       id="text4187"
       style="font-variant:normal;font-weight:normal;font-size:14px;font-family:'DejaVu Sans';-inkscape-font-specification:DejaVuSans;writing-mode:lr-tb;fill:#000000;fill-opacity:1;fill-rule:nonzero;stroke:none"
       transform="scale(1,-1)"
       x="6.1960168"
       y="-25.396866"><tspan
         id="tspan4189"
         sodipodi:role="line"
         y="-25.396866"
         x="6.1960168 15.100018 23.976017 32.880016 41.75602 49.442017 58.34602 118.14001 127.01601 135.89201 144.79602 152.48201 161.38602 170.33202 230.08401 238.98802 247.86401 256.76804 261.69601 270.60001 279.50403 342.19601 351.10001 359.97601 368.88 373.80801 382.71201 391.61603 454.15402 463.05801 471.96201 476.89001 485.79401 494.69803 502.42603">3b5bc3cbd9c49b0b3f90b0b3f90b41f16ce</tspan></text>
<g
       transform="matrix(1,0,0,-1,0,127.64274)"
       id="g4191"><path
         inkscape:connector-curvature="0"
         id="path4193"
         style="fill:none;stroke:#000000;stroke-width:0.80000001;stroke-linecap:butt;stroke-linejoin:miter;stroke-miterlimit:4;stroke-dasharray:none;stroke-opacity:1"
         d="m 70.547,99.859 42.254,0" /></g><g
       transform="translate(521.68488,127.64274)"
       id="g4195"><path
         inkscape:connector-curvature="0"
         id="path4197"
         style="fill:#000000;fill-opacity:1;fill-rule:evenodd;stroke:#000000;stroke-width:0.80000001;stroke-linecap:butt;stroke-linejoin:miter;stroke-miterlimit:4;stroke-dasharray:none;stroke-opacity:1"
         d="m -104.801,-99.859 3.199,-3.2 -11.199,3.2 11.199,3.199 -3.199,-3.199 z" /></g><g
       transform="matrix(1,0,0,-1,0,127.64274)"
       id="g4199"><path
         inkscape:connector-curvature="0"
         id="path4201"
         style="fill:none;stroke:#000000;stroke-width:0.80000001;stroke-linecap:butt;stroke-linejoin:miter;stroke-miterlimit:4;stroke-dasharray:none;stroke-opacity:1"
         d="m 182.547,99.859 42.254,0" /></g><g
       transform="translate(521.68488,127.64274)"
       id="g4203"><path
         inkscape:connector-curvature="0"
         id="path4205"
         style="fill:#000000;fill-opacity:1;fill-rule:evenodd;stroke:#000000;stroke-width:0.80000001;stroke-linecap:butt;stroke-linejoin:miter;stroke-miterlimit:4;stroke-dasharray:none;stroke-opacity:1"
         d="m -216.801,-99.859 3.199,-3.2 -11.199,3.2 11.199,3.199 -3.199,-3.199 z" /></g><g
       transform="matrix(1,0,0,-1,0,127.64274)"
       id="g4207"><path
         inkscape:connector-curvature="0"
         id="path4209"
         style="fill:none;stroke:#000000;stroke-width:0.80000001;stroke-linecap:butt;stroke-linejoin:miter;stroke-miterlimit:4;stroke-dasharray:none;stroke-opacity:1"
         d="m 294.547,99.859 42.254,0" /></g><g
       transform="translate(521.68488,127.64274)"
       id="g4211"><path
         inkscape:connector-curvature="0"
         id="path4213"
         style="fill:#000000;fill-opacity:1;fill-rule:evenodd;stroke:#000000;stroke-width:0.80000001;stroke-linecap:butt;stroke-linejoin:miter;stroke-miterlimit:4;stroke-dasharray:none;stroke-opacity:1"
         d="m -328.801,-99.859 3.199,-3.2 -11.199,3.2 11.199,3.199 -3.199,-3.199 z" /></g><g
       transform="matrix(1,0,0,-1,0,127.64274)"
       id="g4215"><path
         inkscape:connector-curvature="0"
         id="path4217"
         style="fill:none;stroke:#000000;stroke-width:0.80000001;stroke-linecap:butt;stroke-linejoin:miter;stroke-miterlimit:4;stroke-dasharray:none;stroke-opacity:1"
         d="m 406.547,99.859 42.254,0" /></g><g
       transform="translate(521.68488,127.64274)"
       id="g4219"><path
         inkscape:connector-curvature="0"
         id="path4221"
         style="fill:#000000;fill-opacity:1;fill-rule:evenodd;stroke:#000000;stroke-width:0.80000001;stroke-linecap:butt;stroke-linejoin:miter;stroke-miterlimit:4;stroke-dasharray:none;stroke-opacity:1"
         d="m -440.801,-99.859 3.199,-3.2 -11.199,3.2 11.199,3.199 -3.199,-3.199 z" /></g><path
       inkscape:connector-curvature="0"
       id="path4223"
       style="fill:#fd6f34;fill-opacity:1;fill-rule:nonzero;stroke:none"
       d="m 446.027,191.643 75.316,0 0,-36.109 -75.316,0 0,36.109 z" /><text
       id="text4225"
       style="font-style:oblique;font-variant:normal;font-size:14px;font-family:'DejaVu Sans';-inkscape-font-specification:DejaVuSans-Oblique;writing-mode:lr-tb;fill:#000000;fill-opacity:1;fill-rule:nonzero;stroke:none"
       transform="scale(1,-1)"
       x="462.07065"
       y="-168.73511"><tspan
         id="tspan4227"
         sodipodi:role="line"
         y="-168.73511"
         x="462.07065 472.58466 481.41864 490.99463">HEAD</tspan></text>
<path
       inkscape:connector-curvature="0"
       id="path4229"
       style="fill:#fd6f34;fill-opacity:1;fill-rule:nonzero;stroke:none"
       d="m 446.75,127.526 75.316,0 0,-36.109 -75.316,0 0,36.109 z" /><text
       id="text4231"
       style="font-style:oblique;font-variant:normal;font-size:14px;font-family:'DejaVu Sans';-inkscape-font-specification:DejaVuSans-Oblique;writing-mode:lr-tb;fill:#000000;fill-opacity:1;fill-rule:nonzero;stroke:none"
       transform="scale(1,-1)"
       x="457.06616"
       y="-104.8286"><tspan
         id="tspan4233"
         sodipodi:role="line"
         y="-104.8286"
         x="457.06616 470.70215 479.27017 486.55017 492.03815 500.64816">master</tspan></text>
<g
       transform="matrix(1,0,0,-1,336,191.64274)"
       id="g4235"><path
         inkscape:connector-curvature="0"
         id="path4237"
         style="fill:none;stroke:#fd6f34;stroke-width:0.95999998;stroke-linecap:butt;stroke-linejoin:miter;stroke-miterlimit:4;stroke-dasharray:none;stroke-opacity:1"
         d="m 147.684,36.109 -0.008,36.766" /></g><g
       transform="matrix(1.418e-4,1,1,-1.418e-4,336,198.04274)"
       id="g4239"><path
         inkscape:connector-curvature="0"
         id="path4241"
         style="fill:#fd6f34;fill-opacity:1;fill-rule:evenodd;stroke:#fd6f34;stroke-width:0.95999998;stroke-linecap:butt;stroke-linejoin:miter;stroke-miterlimit:4;stroke-dasharray:none;stroke-opacity:1"
         d="m -63.252,147.689 3.839,-3.841 -13.441,3.838 13.442,3.842 -3.84,-3.839 z" /></g><g
       transform="matrix(1,0,0,-1,0,127.64274)"
       id="g4243"><path
         inkscape:connector-curvature="0"
         id="path4245"
         style="fill:none;stroke:#fd6f34;stroke-width:0.80000001;stroke-linecap:butt;stroke-linejoin:miter;stroke-miterlimit:4;stroke-dasharray:none;stroke-opacity:1"
         d="m 483,36.227 0.387,36.648" /></g><g
       transform="matrix(-0.0106014,1,1,0.0106014,0,127.64274)"
       id="g4247"><path
         inkscape:connector-curvature="0"
         id="path4249"
         style="fill:#fd6f34;fill-opacity:1;fill-rule:evenodd;stroke:#fd6f34;stroke-width:0.79995501;stroke-linecap:butt;stroke-linejoin:miter;stroke-miterlimit:4;stroke-dasharray:none;stroke-opacity:1"
         d="m -69.991,482.559 3.198,-3.201 -11.198,3.202 11.201,3.201 -3.201,-3.202 z" /></g><g
       id="g4362"
       transform="matrix(1,0,0,-1,112,193.24274)"><path
         d="m 124.148,72.875 47.047,0 c 6.289,0 11.352,5.063 11.352,11.348 l 0,31.269 c 0,6.289 -5.063,11.352 -11.352,11.352 l -47.047,0 c -6.285,0 -11.347,-5.063 -11.347,-11.352 l 0,-31.269 c 0,-6.285 5.062,-11.348 11.347,-11.348 z"
         style="fill:#00e7ff;fill-opacity:1;fill-rule:evenodd;stroke:#000000;stroke-width:1.60000002;stroke-linecap:butt;stroke-linejoin:miter;stroke-miterlimit:4;stroke-dasharray:none;stroke-opacity:1"
         id="path4364"
         inkscape:connector-curvature="0" /></g><path
       style="fill:none;fill-rule:evenodd;stroke:#000000;stroke-width:0.95999998;stroke-linecap:butt;stroke-linejoin:miter;stroke-miterlimit:4;stroke-dasharray:none;stroke-opacity:1;marker-end:url(#Arrow1Lend)"
       d="M 225.63859,73.448213 181.70982,47.718506"
       id="path4366"
       inkscape:connector-type="polyline"
       inkscape:connector-curvature="0"
       inkscape:connection-start="#g4362"
       inkscape:connection-end="#g4183" /><text
       xml:space="preserve"
       style="font-style:normal;font-weight:normal;font-size:14px;line-height:125%;font-family:sans-serif;letter-spacing:0px;word-spacing:0px;fill:#000000;fill-opacity:1;stroke:none;stroke-width:1px;stroke-linecap:butt;stroke-linejoin:miter;stroke-opacity:1"
       x="228.11394"
       y="-91.327171"
       id="text4632"
       sodipodi:linespacing="125%"
       transform="scale(1,-1)"><tspan
         sodipodi:role="line"
         id="tspan4634"
         x="228.11394"
         y="-91.327171">ba2c33a</tspan></text>
</g></svg>